# Blender v2.72 (sub 0) OBJ File: ''
# www.blender.org
v 0.437500 0.164062 0.765625
v -0.437500 0.164062 0.765625
v 0.500000 0.093750 0.687500
v -0.500000 0.093750 0.687500
v 0.546875 0.054688 0.578125
v -0.546875 0.054688 0.578125
v 0.351562 -0.023438 0.617188
v -0.351562 -0.023438 0.617188
v 0.351562 0.031250 0.718750
v -0.351562 0.031250 0.718750
v 0.351562 0.132812 0.781250
v -0.351562 0.132812 0.781250
v 0.273438 0.164062 0.796875
v -0.273438 0.164062 0.796875
v 0.203125 0.093750 0.742188
v -0.203125 0.093750 0.742188
v 0.156250 0.054688 0.648438
v -0.156250 0.054688 0.648438
v 0.078125 0.242188 0.656250
v -0.078125 0.242188 0.656250
v 0.140625 0.242188 0.742188
v -0.140625 0.242188 0.742188
v 0.242188 0.242188 0.796875
v -0.242188 0.242188 0.796875
v 0.273438 0.328125 0.796875
v -0.273438 0.328125 0.796875
v 0.203125 0.390625 0.742188
v -0.203125 0.390625 0.742188
v 0.156250 0.437500 0.648438
v -0.156250 0.437500 0.648438
v 0.351562 0.515625 0.617188
v -0.351562 0.515625 0.617188
v 0.351562 0.453125 0.718750
v -0.351562 0.453125 0.718750
v 0.351562 0.359375 0.781250
v -0.351562 0.359375 0.781250
v 0.437500 0.328125 0.765625
v -0.437500 0.328125 0.765625
v 0.500000 0.390625 0.687500
v -0.500000 0.390625 0.687500
v 0.546875 0.437500 0.578125
v -0.546875 0.437500 0.578125
v 0.625000 0.242188 0.562500
v -0.625000 0.242188 0.562500
v 0.562500 0.242188 0.671875
v -0.562500 0.242188 0.671875
v 0.468750 0.242188 0.757812
v -0.468750 0.242188 0.757812
v 0.476562 0.242188 0.773438
v -0.476562 0.242188 0.773438
v 0.445312 0.335938 0.781250
v -0.445312 0.335938 0.781250
v 0.351562 0.375000 0.804688
v -0.351562 0.375000 0.804688
v 0.265625 0.335938 0.820312
v -0.265625 0.335938 0.820312
v 0.226562 0.242188 0.820312
v -0.226562 0.242188 0.820312
v 0.265625 0.156250 0.820312
v -0.265625 0.156250 0.820312
v 0.351562 0.242188 0.828125
v -0.351562 0.242188 0.828125
v 0.351562 0.117188 0.804688
v -0.351562 0.117188 0.804688
v 0.445312 0.156250 0.781250
v -0.445312 0.156250 0.781250
v 0.000000 0.429688 0.742188
v 0.000000 0.351562 0.820312
v 0.000000 -0.679688 0.734375
v 0.000000 -0.320312 0.781250
v 0.000000 -0.187500 0.796875
v 0.000000 -0.773438 0.718750
v 0.000000 0.406250 0.601562
v 0.000000 0.570312 0.570312
v 0.000000 0.898438 -0.546875
v 0.000000 0.562500 -0.851562
v 0.000000 0.070312 -0.828125
v 0.000000 -0.382812 -0.351562
v 0.203125 -0.187500 0.562500
v -0.203125 -0.187500 0.562500
v 0.312500 -0.437500 0.570312
v -0.312500 -0.437500 0.570312
v 0.351562 -0.695312 0.570312
v -0.351562 -0.695312 0.570312
v 0.367188 -0.890625 0.531250
v -0.367188 -0.890625 0.531250
v 0.328125 -0.945312 0.523438
v -0.328125 -0.945312 0.523438
v 0.179688 -0.968750 0.554688
v -0.179688 -0.968750 0.554688
v 0.000000 -0.984375 0.578125
v 0.437500 -0.140625 0.531250
v -0.437500 -0.140625 0.531250
v 0.632812 -0.039062 0.539062
v -0.632812 -0.039062 0.539062
v 0.828125 0.148438 0.445312
v -0.828125 0.148438 0.445312
v 0.859375 0.429688 0.593750
v -0.859375 0.429688 0.593750
v 0.710938 0.484375 0.625000
v -0.710938 0.484375 0.625000
v 0.492188 0.601562 0.687500
v -0.492188 0.601562 0.687500
v 0.320312 0.757812 0.734375
v -0.320312 0.757812 0.734375
v 0.156250 0.718750 0.757812
v -0.156250 0.718750 0.757812
v 0.062500 0.492188 0.750000
v -0.062500 0.492188 0.750000
v 0.164062 0.414062 0.773438
v -0.164062 0.414062 0.773438
v 0.125000 0.304688 0.765625
v -0.125000 0.304688 0.765625
v 0.203125 0.093750 0.742188
v -0.203125 0.093750 0.742188
v 0.375000 0.015625 0.703125
v -0.375000 0.015625 0.703125
v 0.492188 0.062500 0.671875
v -0.492188 0.062500 0.671875
v 0.625000 0.187500 0.648438
v -0.625000 0.187500 0.648438
v 0.640625 0.296875 0.648438
v -0.640625 0.296875 0.648438
v 0.601562 0.375000 0.664062
v -0.601562 0.375000 0.664062
v 0.429688 0.437500 0.718750
v -0.429688 0.437500 0.718750
v 0.250000 0.468750 0.757812
v -0.250000 0.468750 0.757812
v 0.000000 -0.765625 0.734375
v 0.109375 -0.718750 0.734375
v -0.109375 -0.718750 0.734375
v 0.117188 -0.835938 0.710938
v -0.117188 -0.835938 0.710938
v 0.062500 -0.882812 0.695312
v -0.062500 -0.882812 0.695312
v 0.000000 -0.890625 0.687500
v 0.000000 -0.195312 0.750000
v 0.000000 -0.140625 0.742188
v 0.101562 -0.148438 0.742188
v -0.101562 -0.148438 0.742188
v 0.125000 -0.226562 0.750000
v -0.125000 -0.226562 0.750000
v 0.085938 -0.289062 0.742188
v -0.085938 -0.289062 0.742188
v 0.398438 -0.046875 0.671875
v -0.398438 -0.046875 0.671875
v 0.617188 0.054688 0.625000
v -0.617188 0.054688 0.625000
v 0.726562 0.203125 0.601562
v -0.726562 0.203125 0.601562
v 0.742188 0.375000 0.656250
v -0.742188 0.375000 0.656250
v 0.687500 0.414062 0.726562
v -0.687500 0.414062 0.726562
v 0.437500 0.546875 0.796875
v -0.437500 0.546875 0.796875
v 0.312500 0.640625 0.835938
v -0.312500 0.640625 0.835938
v 0.203125 0.617188 0.851562
v -0.203125 0.617188 0.851562
v 0.101562 0.429688 0.843750
v -0.101562 0.429688 0.843750
v 0.125000 -0.101562 0.812500
v -0.125000 -0.101562 0.812500
v 0.210938 -0.445312 0.710938
v -0.210938 -0.445312 0.710938
v 0.250000 -0.703125 0.687500
v -0.250000 -0.703125 0.687500
v 0.265625 -0.820312 0.664062
v -0.265625 -0.820312 0.664062
v 0.234375 -0.914062 0.632812
v -0.234375 -0.914062 0.632812
v 0.164062 -0.929688 0.632812
v -0.164062 -0.929688 0.632812
v 0.000000 -0.945312 0.640625
v 0.000000 0.046875 0.726562
v 0.000000 0.210938 0.765625
v 0.328125 0.476562 0.742188
v -0.328125 0.476562 0.742188
v 0.164062 0.140625 0.750000
v -0.164062 0.140625 0.750000
v 0.132812 0.210938 0.757812
v -0.132812 0.210938 0.757812
v 0.117188 -0.687500 0.734375
v -0.117188 -0.687500 0.734375
v 0.078125 -0.445312 0.750000
v -0.078125 -0.445312 0.750000
v 0.000000 -0.445312 0.750000
v 0.000000 -0.328125 0.742188
v 0.093750 -0.273438 0.781250
v -0.093750 -0.273438 0.781250
v 0.132812 -0.226562 0.796875
v -0.132812 -0.226562 0.796875
v 0.109375 -0.132812 0.781250
v -0.109375 -0.132812 0.781250
v 0.039062 -0.125000 0.781250
v -0.039062 -0.125000 0.781250
v 0.000000 -0.203125 0.828125
v 0.046875 -0.148438 0.812500
v -0.046875 -0.148438 0.812500
v 0.093750 -0.156250 0.812500
v -0.093750 -0.156250 0.812500
v 0.109375 -0.226562 0.828125
v -0.109375 -0.226562 0.828125
v 0.078125 -0.250000 0.804688
v -0.078125 -0.250000 0.804688
v 0.000000 -0.289062 0.804688
v 0.257812 -0.312500 0.554688
v -0.257812 -0.312500 0.554688
v 0.164062 -0.242188 0.710938
v -0.164062 -0.242188 0.710938
v 0.179688 -0.312500 0.710938
v -0.179688 -0.312500 0.710938
v 0.234375 -0.250000 0.554688
v -0.234375 -0.250000 0.554688
v 0.000000 -0.875000 0.687500
v 0.046875 -0.867188 0.687500
v -0.046875 -0.867188 0.687500
v 0.093750 -0.820312 0.710938
v -0.093750 -0.820312 0.710938
v 0.093750 -0.742188 0.726562
v -0.093750 -0.742188 0.726562
v 0.000000 -0.781250 0.656250
v 0.093750 -0.750000 0.664062
v -0.093750 -0.750000 0.664062
v 0.093750 -0.812500 0.640625
v -0.093750 -0.812500 0.640625
v 0.046875 -0.851562 0.632812
v -0.046875 -0.851562 0.632812
v 0.000000 -0.859375 0.632812
v 0.171875 0.218750 0.781250
v -0.171875 0.218750 0.781250
v 0.187500 0.156250 0.773438
v -0.187500 0.156250 0.773438
v 0.335938 0.429688 0.757812
v -0.335938 0.429688 0.757812
v 0.273438 0.421875 0.773438
v -0.273438 0.421875 0.773438
v 0.421875 0.398438 0.773438
v -0.421875 0.398438 0.773438
v 0.562500 0.351562 0.695312
v -0.562500 0.351562 0.695312
v 0.585938 0.289062 0.687500
v -0.585938 0.289062 0.687500
v 0.578125 0.195312 0.679688
v -0.578125 0.195312 0.679688
v 0.476562 0.101562 0.718750
v -0.476562 0.101562 0.718750
v 0.375000 0.062500 0.742188
v -0.375000 0.062500 0.742188
v 0.226562 0.109375 0.781250
v -0.226562 0.109375 0.781250
v 0.179688 0.296875 0.781250
v -0.179688 0.296875 0.781250
v 0.210938 0.375000 0.781250
v -0.210938 0.375000 0.781250
v 0.234375 0.359375 0.757812
v -0.234375 0.359375 0.757812
v 0.195312 0.296875 0.757812
v -0.195312 0.296875 0.757812
v 0.242188 0.125000 0.757812
v -0.242188 0.125000 0.757812
v 0.375000 0.085938 0.726562
v -0.375000 0.085938 0.726562
v 0.460938 0.117188 0.703125
v -0.460938 0.117188 0.703125
v 0.546875 0.210938 0.671875
v -0.546875 0.210938 0.671875
v 0.554688 0.281250 0.671875
v -0.554688 0.281250 0.671875
v 0.531250 0.335938 0.679688
v -0.531250 0.335938 0.679688
v 0.414062 0.390625 0.750000
v -0.414062 0.390625 0.750000
v 0.281250 0.398438 0.765625
v -0.281250 0.398438 0.765625
v 0.335938 0.406250 0.750000
v -0.335938 0.406250 0.750000
v 0.203125 0.171875 0.750000
v -0.203125 0.171875 0.750000
v 0.195312 0.226562 0.750000
v -0.195312 0.226562 0.750000
v 0.109375 0.460938 0.609375
v -0.109375 0.460938 0.609375
v 0.195312 0.664062 0.617188
v -0.195312 0.664062 0.617188
v 0.335938 0.687500 0.593750
v -0.335938 0.687500 0.593750
v 0.484375 0.554688 0.554688
v -0.484375 0.554688 0.554688
v 0.679688 0.453125 0.492188
v -0.679688 0.453125 0.492188
v 0.796875 0.406250 0.460938
v -0.796875 0.406250 0.460938
v 0.773438 0.164062 0.375000
v -0.773438 0.164062 0.375000
v 0.601562 0.000000 0.414062
v -0.601562 0.000000 0.414062
v 0.437500 -0.093750 0.468750
v -0.437500 -0.093750 0.468750
v 0.000000 0.898438 0.289062
v 0.000000 0.984375 -0.078125
v 0.000000 -0.195312 -0.671875
v 0.000000 -0.460938 0.187500
v 0.000000 -0.976562 0.460938
v 0.000000 -0.804688 0.343750
v 0.000000 -0.570312 0.320312
v 0.000000 -0.484375 0.281250
v 0.851562 0.234375 0.054688
v -0.851562 0.234375 0.054688
v 0.859375 0.320312 -0.046875
v -0.859375 0.320312 -0.046875
v 0.773438 0.265625 -0.437500
v -0.773438 0.265625 -0.437500
v 0.460938 0.437500 -0.703125
v -0.460938 0.437500 -0.703125
v 0.734375 -0.046875 0.070312
v -0.734375 -0.046875 0.070312
v 0.593750 -0.125000 -0.164062
v -0.593750 -0.125000 -0.164062
v 0.640625 -0.007812 -0.429688
v -0.640625 -0.007812 -0.429688
v 0.335938 0.054688 -0.664062
v -0.335938 0.054688 -0.664062
v 0.234375 -0.351562 0.406250
v -0.234375 -0.351562 0.406250
v 0.179688 -0.414062 0.257812
v -0.179688 -0.414062 0.257812
v 0.289062 -0.710938 0.382812
v -0.289062 -0.710938 0.382812
v 0.250000 -0.500000 0.390625
v -0.250000 -0.500000 0.390625
v 0.328125 -0.914062 0.398438
v -0.328125 -0.914062 0.398438
v 0.140625 -0.757812 0.367188
v -0.140625 -0.757812 0.367188
v 0.125000 -0.539062 0.359375
v -0.125000 -0.539062 0.359375
v 0.164062 -0.945312 0.437500
v -0.164062 -0.945312 0.437500
v 0.218750 -0.281250 0.429688
v -0.218750 -0.281250 0.429688
v 0.210938 -0.226562 0.468750
v -0.210938 -0.226562 0.468750
v 0.203125 -0.171875 0.500000
v -0.203125 -0.171875 0.500000
v 0.210938 -0.390625 0.164062
v -0.210938 -0.390625 0.164062
v 0.296875 -0.312500 -0.265625
v -0.296875 -0.312500 -0.265625
v 0.343750 -0.148438 -0.539062
v -0.343750 -0.148438 -0.539062
v 0.453125 0.867188 -0.382812
v -0.453125 0.867188 -0.382812
v 0.453125 0.929688 -0.070312
v -0.453125 0.929688 -0.070312
v 0.453125 0.851562 0.234375
v -0.453125 0.851562 0.234375
v 0.460938 0.523438 0.429688
v -0.460938 0.523438 0.429688
v 0.726562 0.406250 0.335938
v -0.726562 0.406250 0.335938
v 0.632812 0.453125 0.281250
v -0.632812 0.453125 0.281250
v 0.640625 0.703125 0.054688
v -0.640625 0.703125 0.054688
v 0.796875 0.562500 0.125000
v -0.796875 0.562500 0.125000
v 0.796875 0.617188 -0.117188
v -0.796875 0.617188 -0.117188
v 0.640625 0.750000 -0.195312
v -0.640625 0.750000 -0.195312
v 0.640625 0.679688 -0.445312
v -0.640625 0.679688 -0.445312
v 0.796875 0.539062 -0.359375
v -0.796875 0.539062 -0.359375
v 0.617188 0.328125 -0.585938
v -0.617188 0.328125 -0.585938
v 0.484375 0.023438 -0.546875
v -0.484375 0.023438 -0.546875
v 0.820312 0.328125 -0.203125
v -0.820312 0.328125 -0.203125
v 0.406250 -0.171875 0.148438
v -0.406250 -0.171875 0.148438
v 0.429688 -0.195312 -0.210938
v -0.429688 -0.195312 -0.210938
v 0.890625 0.406250 -0.234375
v -0.890625 0.406250 -0.234375
v 0.773438 -0.140625 -0.125000
v -0.773438 -0.140625 -0.125000
v 1.039062 -0.101562 -0.328125
v -1.039062 -0.101562 -0.328125
v 1.281250 0.054688 -0.429688
v -1.281250 0.054688 -0.429688
v 1.351562 0.320312 -0.421875
v -1.351562 0.320312 -0.421875
v 1.234375 0.507812 -0.421875
v -1.234375 0.507812 -0.421875
v 1.023438 0.476562 -0.312500
v -1.023438 0.476562 -0.312500
v 1.015625 0.414062 -0.289062
v -1.015625 0.414062 -0.289062
v 1.187500 0.437500 -0.390625
v -1.187500 0.437500 -0.390625
v 1.265625 0.289062 -0.406250
v -1.265625 0.289062 -0.406250
v 1.210938 0.078125 -0.406250
v -1.210938 0.078125 -0.406250
v 1.031250 -0.039062 -0.304688
v -1.031250 -0.039062 -0.304688
v 0.828125 -0.070312 -0.132812
v -0.828125 -0.070312 -0.132812
v 0.921875 0.359375 -0.218750
v -0.921875 0.359375 -0.218750
v 0.945312 0.304688 -0.289062
v -0.945312 0.304688 -0.289062
v 0.882812 -0.023438 -0.210938
v -0.882812 -0.023438 -0.210938
v 1.039062 0.000000 -0.367188
v -1.039062 0.000000 -0.367188
v 1.187500 0.093750 -0.445312
v -1.187500 0.093750 -0.445312
v 1.234375 0.250000 -0.445312
v -1.234375 0.250000 -0.445312
v 1.171875 0.359375 -0.437500
v -1.171875 0.359375 -0.437500
v 1.023438 0.343750 -0.359375
v -1.023438 0.343750 -0.359375
v 0.843750 0.289062 -0.210938
v -0.843750 0.289062 -0.210938
v 0.835938 0.171875 -0.273438
v -0.835938 0.171875 -0.273438
v 0.757812 0.093750 -0.273438
v -0.757812 0.093750 -0.273438
v 0.820312 0.085938 -0.273438
v -0.820312 0.085938 -0.273438
v 0.843750 0.015625 -0.273438
v -0.843750 0.015625 -0.273438
v 0.812500 -0.015625 -0.273438
v -0.812500 -0.015625 -0.273438
v 0.726562 0.000000 -0.070312
v -0.726562 0.000000 -0.070312
v 0.718750 -0.023438 -0.171875
v -0.718750 -0.023438 -0.171875
v 0.718750 0.039062 -0.187500
v -0.718750 0.039062 -0.187500
v 0.796875 0.203125 -0.210938
v -0.796875 0.203125 -0.210938
v 0.890625 0.242188 -0.265625
v -0.890625 0.242188 -0.265625
v 0.890625 0.234375 -0.320312
v -0.890625 0.234375 -0.320312
v 0.812500 -0.015625 -0.320312
v -0.812500 -0.015625 -0.320312
v 0.851562 0.015625 -0.320312
v -0.851562 0.015625 -0.320312
v 0.828125 0.078125 -0.320312
v -0.828125 0.078125 -0.320312
v 0.765625 0.093750 -0.320312
v -0.765625 0.093750 -0.320312
v 0.843750 0.171875 -0.320312
v -0.843750 0.171875 -0.320312
v 1.039062 0.328125 -0.414062
v -1.039062 0.328125 -0.414062
v 1.187500 0.343750 -0.484375
v -1.187500 0.343750 -0.484375
v 1.257812 0.242188 -0.492188
v -1.257812 0.242188 -0.492188
v 1.210938 0.085938 -0.484375
v -1.210938 0.085938 -0.484375
v 1.046875 0.000000 -0.421875
v -1.046875 0.000000 -0.421875
v 0.882812 -0.015625 -0.265625
v -0.882812 -0.015625 -0.265625
v 0.953125 0.289062 -0.343750
v -0.953125 0.289062 -0.343750
v 0.890625 0.109375 -0.328125
v -0.890625 0.109375 -0.328125
v 0.937500 0.062500 -0.335938
v -0.937500 0.062500 -0.335938
v 1.000000 0.125000 -0.367188
v -1.000000 0.125000 -0.367188
v 0.960938 0.171875 -0.351562
v -0.960938 0.171875 -0.351562
v 1.015625 0.234375 -0.375000
v -1.015625 0.234375 -0.375000
v 1.054688 0.187500 -0.382812
v -1.054688 0.187500 -0.382812
v 1.109375 0.210938 -0.390625
v -1.109375 0.210938 -0.390625
v 1.085938 0.273438 -0.390625
v -1.085938 0.273438 -0.390625
v 1.023438 0.437500 -0.484375
v -1.023438 0.437500 -0.484375
v 1.250000 0.468750 -0.546875
v -1.250000 0.468750 -0.546875
v 1.367188 0.296875 -0.500000
v -1.367188 0.296875 -0.500000
v 1.312500 0.054688 -0.531250
v -1.312500 0.054688 -0.531250
v 1.039062 -0.085938 -0.492188
v -1.039062 -0.085938 -0.492188
v 0.789062 -0.125000 -0.328125
v -0.789062 -0.125000 -0.328125
v 0.859375 0.382812 -0.382812
v -0.859375 0.382812 -0.382812
vn 0.711600 -0.679300 0.179300
vn 0.605300 -0.505800 0.614600
vn 0.801800 -0.001000 0.597600
vn -0.711600 -0.679300 0.179300
vn -0.970600 -0.015200 0.240200
vn -0.801800 -0.001000 0.597600
vn 0.683700 -0.547300 0.482700
vn 0.868400 -0.002300 0.495900
vn -0.605300 -0.505800 0.614600
vn -0.868400 -0.002300 0.495900
vn 0.096900 -0.751000 0.653100
vn 0.109500 -0.873000 0.475300
vn -0.096900 -0.751000 0.653100
vn -0.683700 -0.547300 0.482700
vn 0.048700 -0.965500 0.255600
vn -0.048700 -0.965500 0.255600
vn -0.641200 -0.694900 0.325600
vn -0.454900 -0.540700 0.707500
vn 0.641200 -0.694900 0.325600
vn -0.547200 -0.639400 0.540100
vn 0.454900 -0.540700 0.707500
vn -0.109500 -0.873000 0.475300
vn -0.689500 -0.000200 0.724200
vn -0.811900 -0.000900 0.583700
vn 0.811900 -0.000900 0.583700
vn 0.689500 -0.000200 0.724200
vn -0.956200 -0.021200 0.291800
vn 0.956200 -0.021200 0.291800
vn -0.645800 0.694700 0.316600
vn -0.460400 0.527700 0.713800
vn 0.645800 0.694700 0.316600
vn -0.525100 0.625500 0.577100
vn 0.525100 0.625500 0.577100
vn 0.460400 0.527700 0.713800
vn 0.100900 0.739600 0.665500
vn 0.116400 0.843500 0.524300
vn -0.116400 0.843500 0.524300
vn -0.100900 0.739600 0.665500
vn 0.043300 0.971300 0.233700
vn -0.043300 0.971300 0.233700
vn 0.716200 0.677100 0.169200
vn 0.609800 0.492200 0.621100
vn -0.609800 0.492200 0.621100
vn -0.716200 0.677100 0.169200
vn 0.672700 0.534700 0.511500
vn -0.672700 0.534700 0.511500
vn 0.970600 -0.015200 0.240200
vn 0.717900 0.658200 0.226400
vn -0.717900 0.658200 0.226400
vn 0.030800 0.939700 0.340500
vn -0.030800 0.939700 0.340500
vn -0.607100 0.644800 0.464400
vn 0.607100 0.644800 0.464400
vn -0.923900 -0.013300 0.382400
vn 0.923900 -0.013300 0.382400
vn -0.599200 -0.652400 0.464000
vn 0.030300 -0.941200 0.336500
vn 0.599200 -0.652400 0.464000
vn 0.710600 -0.665800 0.227400
vn -0.030300 -0.941200 0.336500
vn 0.962600 -0.011300 0.270700
vn -0.710600 -0.665800 0.227400
vn 0.183600 -0.005300 0.983000
vn -0.962600 -0.011300 0.270700
vn -0.183600 -0.005300 0.983000
vn 0.147200 -0.978100 0.147400
vn 0.146100 -0.788700 0.597100
vn 0.000000 -0.766700 0.642000
vn -0.146100 -0.788700 0.597100
vn -0.147200 -0.978100 0.147400
vn 0.623900 -0.777200 0.081700
vn 0.357800 -0.633300 0.686200
vn -0.357800 -0.633300 0.686200
vn -0.623900 -0.777200 0.081700
vn 0.531500 -0.237900 0.813000
vn -0.531500 -0.237900 0.813000
vn -0.938400 -0.345100 0.014300
vn 0.556600 -0.045700 0.829500
vn 0.938400 -0.345100 0.014300
vn -0.556600 -0.045700 0.829500
vn -0.978200 0.080100 0.191700
vn 0.570400 0.075100 0.817900
vn 0.978200 0.080100 0.191700
vn -0.570400 0.075100 0.817900
vn -0.963600 0.232700 0.131200
vn 0.338300 -0.940700 -0.025000
vn 0.397400 -0.503300 0.767300
vn -0.105500 -0.279200 0.954400
vn -0.338300 -0.940700 -0.025000
vn -0.936100 -0.336800 0.101600
vn 0.105500 -0.279200 0.954400
vn 0.581100 -0.781200 0.227900
vn 0.482700 -0.373300 0.792200
vn -0.482700 -0.373300 0.792200
vn -0.581100 -0.781200 0.227900
vn 0.911800 -0.386100 -0.139900
vn 0.625000 -0.315700 0.713900
vn -0.911800 -0.386100 -0.139900
vn 0.883700 0.392800 0.254300
vn 0.525000 -0.437700 0.729900
vn -0.525000 -0.437700 0.729900
vn -0.883700 0.392800 0.254300
vn 0.434900 0.886600 0.157400
vn 0.345100 -0.068100 0.936100
vn -0.345100 -0.068100 0.936100
vn -0.434900 0.886600 0.157400
vn 0.602300 0.781300 0.163600
vn 0.290200 -0.040600 0.956100
vn -0.290200 -0.040600 0.956100
vn -0.602300 0.781300 0.163600
vn 0.218900 0.961900 0.163300
vn 0.261400 0.206500 0.942900
vn -0.218900 0.961900 0.163300
vn -0.595200 0.779100 0.196800
vn -0.130600 0.157800 0.978800
vn 0.130600 0.157800 0.978800
vn 0.595200 0.779100 0.196800
vn -0.810800 0.562300 0.162300
vn -0.023100 -0.175700 0.984200
vn 0.023100 -0.175700 0.984200
vn 0.810800 0.562300 0.162300
vn 0.000000 0.934100 0.357000
vn 0.000000 -0.030100 0.999500
vn 0.278700 -0.214500 0.936100
vn 0.222900 -0.111300 0.968400
vn -0.222900 -0.111300 0.968400
vn -0.278700 -0.214500 0.936100
vn 0.138300 -0.104200 0.984900
vn -0.138300 -0.104200 0.984900
vn 0.291900 0.106300 0.950500
vn -0.261400 0.206500 0.942900
vn -0.291900 0.106300 0.950500
vn 0.081500 -0.288300 0.954000
vn -0.081500 -0.288300 0.954000
vn 0.204000 -0.125500 0.970900
vn -0.204000 -0.125500 0.970900
vn 0.455200 -0.237400 0.858100
vn -0.625000 -0.315700 0.713900
vn -0.455200 -0.237400 0.858100
vn 0.424400 -0.375400 0.823900
vn -0.424400 -0.375400 0.823900
vn 0.167800 -0.503600 0.847500
vn -0.397400 -0.503300 0.767300
vn -0.167800 -0.503600 0.847500
vn 0.024100 -0.314100 0.949100
vn -0.024100 -0.314100 0.949100
vn -0.282700 -0.146300 0.948000
vn 0.000000 0.023200 0.999700
vn 0.282700 -0.146300 0.948000
vn 0.000000 -0.298400 0.954400
vn -0.158100 -0.186300 0.969700
vn -0.088600 -0.080600 0.992800
vn 0.158100 -0.186300 0.969700
vn 0.000000 -0.411600 0.911300
vn 0.070900 -0.387000 0.919300
vn -0.070900 -0.387000 0.919300
vn -0.172900 -0.282800 0.943400
vn 0.157000 -0.132500 0.978600
vn 0.172900 -0.282800 0.943400
vn -0.157000 -0.132500 0.978600
vn 0.136200 -0.004000 0.990700
vn 0.192900 -0.046400 0.980100
vn -0.136200 -0.004000 0.990700
vn -0.192900 -0.046400 0.980100
vn 0.432900 -0.464300 0.772600
vn 0.000000 -0.458000 0.888900
vn 0.000000 -0.004900 1.000000
vn -0.432900 -0.464300 0.772600
vn 0.000000 -0.610100 0.792300
vn 0.946000 -0.185800 0.265600
vn 0.515000 -0.744600 0.424600
vn -0.946000 -0.185800 0.265600
vn -0.821100 -0.293100 0.489600
vn 0.617700 0.778100 0.113700
vn 0.821100 -0.293100 0.489600
vn -0.617700 0.778100 0.113700
vn 0.447600 0.606300 0.657200
vn 0.000000 0.399100 0.916900
vn -0.292500 0.943900 0.152800
vn 0.292500 0.943900 0.152800
vn 0.000000 0.838000 0.545600
vn 0.000000 0.972300 0.233500
vn -0.515000 -0.744600 0.424600
vn 0.000000 -0.870800 0.491600
vn 0.269000 -0.771900 0.576000
vn -0.269000 -0.771900 0.576000
vn 0.000000 0.176200 0.984300
vn -0.145400 0.591000 0.793500
vn 0.364700 0.464000 0.807300
vn 0.145400 0.591000 0.793500
vn 0.467600 -0.215200 0.857300
vn -0.467600 -0.215200 0.857300
vn -0.364700 0.464000 0.807300
vn 0.000000 -0.522200 0.852800
vn -0.447600 0.606300 0.657200
vn 0.836600 0.046100 0.545800
vn 0.655400 0.133900 0.743200
vn -0.655400 0.133900 0.743200
vn 0.963600 0.232700 0.131200
vn 0.922800 0.371500 0.101900
vn -0.922800 0.371500 0.101900
vn 0.928900 0.361000 0.082000
vn -0.836600 0.046100 0.545800
vn -0.928900 0.361000 0.082000
vn 0.000000 -0.952200 0.305300
vn -0.210600 -0.466800 0.858900
vn -0.633200 -0.000200 0.774000
vn 0.633200 -0.000200 0.774000
vn -0.366900 0.603700 0.707700
vn 0.366900 0.603700 0.707700
vn 0.000000 0.592300 0.805700
vn -0.319000 0.469200 0.823400
vn 0.319000 0.469200 0.823400
vn -0.671500 0.145000 0.726700
vn -0.516800 -0.703700 0.487500
vn 0.210600 -0.466800 0.858900
vn 0.671500 0.145000 0.726700
vn 0.000000 -0.693700 0.720200
vn 0.000000 0.527400 0.849600
vn 0.516800 -0.703700 0.487500
vn -0.044000 0.005300 0.999000
vn 0.118700 -0.055200 0.991400
vn -0.118700 -0.055200 0.991400
vn 0.255700 -0.137900 0.956800
vn -0.255700 -0.137900 0.956800
vn 0.088600 -0.080600 0.992800
vn -0.030900 -0.186100 0.982000
vn 0.030900 -0.186100 0.982000
vn 0.249500 -0.171100 0.953100
vn 0.263500 -0.028800 0.964200
vn -0.249500 -0.171100 0.953100
vn 0.281500 -0.021300 0.959300
vn -0.263500 -0.028800 0.964200
vn 0.168100 -0.079500 0.982500
vn -0.281500 -0.021300 0.959300
vn 0.310100 -0.103200 0.945100
vn -0.310100 -0.103200 0.945100
vn 0.196100 -0.195900 0.960800
vn -0.196100 -0.195900 0.960800
vn 0.029600 0.058500 0.997800
vn 0.163100 0.067200 0.984300
vn -0.029600 0.058500 0.997800
vn 0.198900 -0.087900 0.976000
vn -0.163100 0.067200 0.984300
vn 0.512300 -0.372400 0.773800
vn -0.512300 -0.372400 0.773800
vn -0.198900 -0.087900 0.976000
vn 0.186800 -0.254100 0.949000
vn -0.013600 -0.368000 0.929700
vn 0.013600 -0.368000 0.929700
vn -0.139500 -0.915400 0.377600
vn 0.139500 -0.915400 0.377600
vn -0.134600 -0.553000 0.822300
vn -0.384000 -0.135100 0.913400
vn -0.168100 -0.079500 0.982500
vn 0.384000 -0.135100 0.913400
vn -0.147700 0.189900 0.970600
vn -0.133800 0.598600 0.789800
vn 0.133800 0.598600 0.789800
vn 0.183400 0.552300 0.813200
vn -0.183400 0.552300 0.813200
vn 0.419700 0.600800 0.680300
vn 0.692000 0.295800 0.658500
vn 0.044000 0.005300 0.999000
vn -0.692000 0.295800 0.658500
vn 0.793900 -0.286500 0.536400
vn 0.798700 0.019400 0.601400
vn -0.793900 -0.286500 0.536400
vn -0.798700 0.019400 0.601400
vn -0.562400 0.765900 0.311500
vn 0.000000 0.886900 0.462000
vn -0.467500 0.522800 -0.712800
vn 0.562400 0.765900 0.311500
vn 0.110200 0.650700 -0.751300
vn -0.110200 0.650700 -0.751300
vn 0.274600 0.888000 -0.368800
vn -0.274600 0.888000 -0.368800
vn 0.362600 0.912000 -0.191900
vn -0.362600 0.912000 -0.191900
vn 0.739100 0.607000 -0.292000
vn 0.856500 -0.470900 -0.211300
vn -0.856500 -0.470900 -0.211300
vn 0.626100 -0.778200 -0.049300
vn 0.367600 -0.909500 -0.193900
vn -0.626100 -0.778200 -0.049300
vn 0.000000 -0.326700 -0.945100
vn 0.000000 -0.710900 -0.703300
vn 0.609500 -0.776400 -0.160100
vn -0.609500 -0.776400 -0.160100
vn 0.000000 -0.356900 -0.934100
vn 0.408500 -0.292000 -0.864800
vn -0.408500 -0.292000 -0.864800
vn 0.000000 -0.867100 -0.498200
vn 0.172200 -0.199900 -0.964500
vn -0.172200 -0.199900 -0.964500
vn 0.000000 -0.971200 0.238100
vn 0.039700 -0.749500 -0.660800
vn -0.039700 -0.749500 -0.660800
vn 0.630500 -0.407800 -0.660400
vn -0.630500 -0.407800 -0.660400
vn 0.613200 0.041000 -0.788800
vn -0.613200 0.041000 -0.788800
vn 0.624900 0.122400 -0.771000
vn -0.624900 0.122400 -0.771000
vn 0.943900 0.105600 -0.312900
vn -0.943900 0.105600 -0.312900
vn 0.998200 0.018300 0.056500
vn 0.956200 -0.136200 0.258900
vn -0.956200 -0.136200 0.258900
vn -0.998200 0.018300 0.056500
vn 0.936100 -0.336800 0.101600
vn 0.752600 -0.591100 0.290100
vn -0.367600 -0.909500 -0.193900
vn -0.752600 -0.591100 0.290100
vn 0.000000 -0.264300 -0.964400
vn 0.440400 -0.320800 -0.838500
vn 0.526400 -0.659400 -0.536700
vn -0.526400 -0.659400 -0.536700
vn -0.440400 -0.320800 -0.838500
vn 0.000000 -0.695600 -0.718400
vn 0.501700 -0.833300 -0.232000
vn -0.501700 -0.833300 -0.232000
vn 0.574700 -0.818300 0.000900
vn 0.000000 -0.981500 -0.191500
vn 0.000000 -0.936600 -0.350400
vn -0.574700 -0.818300 0.000900
vn 0.750400 -0.650200 0.119100
vn 0.985500 -0.161400 0.052200
vn -0.985500 -0.161400 0.052200
vn 0.000000 0.314800 -0.949100
vn 0.512600 0.168600 -0.841900
vn -0.512600 0.168600 -0.841900
vn 0.000000 0.847700 0.530400
vn 0.479800 0.718200 0.504000
vn 0.428800 0.902500 0.039800
vn -0.428800 0.902500 0.039800
vn -0.479800 0.718200 0.504000
vn 0.426500 0.799700 -0.422500
vn 0.000000 0.846500 -0.532400
vn 0.000000 0.999800 0.021700
vn -0.426500 0.799700 -0.422500
vn 0.624500 0.780300 -0.033200
vn 0.354300 0.818700 0.451900
vn -0.739100 0.607000 -0.292000
vn -0.354300 0.818700 0.451900
vn 0.790800 0.485600 0.372600
vn 0.655000 0.685100 0.318600
vn -0.624500 0.780300 -0.033200
vn -0.655000 0.685100 0.318600
vn 0.867800 0.496800 0.003000
vn 0.659500 0.748100 -0.073300
vn -0.790800 0.485600 0.372600
vn -0.659500 0.748100 -0.073300
vn 0.893500 0.254500 -0.369800
vn 0.498600 0.550200 -0.669800
vn -0.867800 0.496800 0.003000
vn -0.498600 0.550200 -0.669800
vn 0.783000 -0.124200 -0.609500
vn 0.609900 -0.022100 -0.792100
vn -0.609900 -0.022100 -0.792100
vn -0.783000 -0.124200 -0.609500
vn 0.364500 0.902900 0.228000
vn -0.364500 0.902900 0.228000
vn 0.000000 0.517200 0.855800
vn 0.467500 0.522800 -0.712800
vn 0.996900 0.035500 -0.069800
vn -0.996900 0.035500 -0.069800
vn 0.917300 0.292700 0.270000
vn -0.917300 0.292700 0.270000
vn -0.893500 0.254500 -0.369800
vn 0.596800 -0.785900 -0.161800
vn -0.596800 -0.785900 -0.161800
vn 0.567300 -0.808300 0.157500
vn -0.567300 -0.808300 0.157500
vn -0.750400 -0.650200 0.119100
vn 0.311000 -0.642600 -0.700200
vn 0.542100 -0.499300 -0.675900
vn -0.542100 -0.499300 -0.675900
vn -0.311000 -0.642600 -0.700200
vn 0.333500 -0.938900 -0.085200
vn -0.333500 -0.938900 -0.085200
vn -0.038000 0.887100 0.460000
vn -0.329600 0.748500 0.575400
vn 0.391900 -0.023100 0.919700
vn -0.391900 -0.023100 0.919700
vn 0.329600 0.748500 0.575400
vn 0.038000 0.887100 0.460000
vn 0.572000 -0.114900 0.812200
vn 0.391100 -0.121400 0.912300
vn 0.365900 0.871100 0.327600
vn -0.572000 -0.114900 0.812200
vn -0.365900 0.871100 0.327600
vn -0.154600 -0.077700 0.984900
vn 0.154600 -0.077700 0.984900
vn -0.391100 -0.121400 0.912300
vn 0.762600 0.175100 0.622700
vn -0.045800 0.361200 0.931300
vn 0.045800 0.361200 0.931300
vn -0.762600 0.175100 0.622700
vn 0.680400 -0.426400 0.596000
vn 0.468400 0.314400 0.825600
vn -0.468400 0.314400 0.825600
vn -0.680400 -0.426400 0.596000
vn 0.359300 0.230100 0.904400
vn -0.021400 -0.683300 0.729800
vn -0.461300 -0.798200 0.387500
vn 0.021400 -0.683300 0.729800
vn -0.212200 0.951700 0.221800
vn 0.333600 0.809400 0.483300
vn 0.212200 0.951700 0.221800
vn -0.359300 0.230100 0.904400
vn -0.809500 0.584700 -0.052400
vn 0.809500 0.584700 -0.052400
vn -0.993100 -0.055200 0.103500
vn 0.993100 -0.055200 0.103500
vn -0.127600 -0.758500 0.639100
vn 0.127600 -0.758500 0.639100
vn 0.558500 -0.654500 0.509600
vn -0.558500 -0.654500 0.509600
vn 0.727400 -0.512700 0.456000
vn 0.734100 0.141400 0.664200
vn -0.734100 0.141400 0.664200
vn 0.971000 -0.203500 -0.125000
vn 0.353000 -0.207000 0.912400
vn -0.353000 -0.207000 0.912400
vn 0.804600 0.430500 0.408900
vn -0.333600 0.809400 0.483300
vn 0.875400 -0.183600 0.447200
vn 0.934400 -0.089100 0.344800
vn -0.934400 -0.089100 0.344800
vn -0.875400 -0.183600 0.447200
vn 0.570100 0.736100 0.364900
vn -0.954300 0.102600 0.280600
vn -0.570100 0.736100 0.364900
vn 0.746500 -0.565900 0.349800
vn 0.867600 -0.363800 0.338900
vn -0.867600 -0.363800 0.338900
vn -0.746500 -0.565900 0.349800
vn 0.665500 -0.560900 0.492300
vn -0.665500 -0.560900 0.492300
vn -0.971000 -0.203500 -0.125000
vn 0.663900 -0.467300 0.583800
vn 0.621500 -0.442200 0.646600
vn -0.727400 -0.512700 0.456000
vn -0.621500 -0.442200 0.646600
vn 0.517600 -0.452300 0.726300
vn -0.517600 -0.452300 0.726300
vn 0.954300 0.102600 0.280600
vn 0.767500 0.233600 0.596900
vn 0.424300 0.457100 0.781600
vn -0.424300 0.457100 0.781600
vn 0.659300 -0.351700 0.664500
vn -0.659300 -0.351700 0.664500
vn 0.700900 0.296800 0.648500
vn -0.804600 0.430500 0.408900
vn -0.065800 0.942400 0.328000
vn -0.700900 0.296800 0.648500
vn 0.520500 -0.249800 0.816500
vn -0.520500 -0.249800 0.816500
vn -0.208300 -0.539700 0.815600
vn 0.208300 -0.539700 0.815600
vn -0.760600 -0.032800 0.648300
vn 0.760600 -0.032800 0.648300
vn -0.600900 0.491700 0.630100
vn 0.600900 0.491700 0.630100
vn 0.142500 0.695400 0.704300
vn -0.142500 0.695400 0.704300
vn -0.201600 0.533700 0.821300
vn 0.201600 0.533700 0.821300
vn 0.193300 -0.005600 0.981100
vn 0.433800 -0.035300 0.900300
vn -0.433800 -0.035300 0.900300
vn -0.193300 -0.005600 0.981100
vn 0.325400 -0.115200 0.938500
vn 0.299600 -0.054500 0.952500
vn -0.372300 -0.019400 0.927900
vn -0.299600 -0.054500 0.952500
vn 0.462800 -0.381800 0.800000
vn -0.462800 -0.381800 0.800000
vn -0.325400 -0.115200 0.938500
vn 0.358600 0.308100 0.881200
vn -0.358600 0.308100 0.881200
vn 0.372300 -0.019400 0.927900
vn -0.663900 -0.467300 0.583800
vn -0.767500 0.233600 0.596900
vn 0.065800 0.942400 0.328000
vn -0.231000 -0.841900 -0.487700
vn -0.064700 -0.682600 -0.727800
vn 0.064700 -0.682600 -0.727800
vn 0.461300 -0.798200 0.387500
vn 0.659600 -0.485500 -0.573800
vn -0.659600 -0.485500 -0.573800
vn 0.924000 0.086000 -0.372600
vn -0.924000 0.086000 -0.372600
vn 0.279600 0.620800 -0.732400
vn -0.279600 0.620800 -0.732400
vn -0.427800 0.575500 -0.697000
vn 0.427800 0.575500 -0.697000
vn 0.231000 -0.841900 -0.487700
vn -0.661100 0.588500 -0.465300
vn 0.661100 0.588500 -0.465300
vn 0.547200 -0.639400 0.540100
vn 0.000000 -0.034700 0.999400
vn -0.186800 -0.254100 0.949000
vn 0.134600 -0.553000 0.822300
vn 0.147700 0.189900 0.970600
vn -0.419700 0.600800 0.680300
s 1
f 1//1 3//2 45//3
f 2//4 48//5 46//6
f 3//2 5//7 43//8
f 4//9 46//6 44//10
f 9//11 7//12 5//7
f 10//13 4//9 6//14
f 11//15 9//11 3//2
f 12//16 2//4 4//9
f 13//17 15//18 9//11
f 14//19 12//16 10//13
f 15//18 17//20 7//12
f 16//21 10//13 8//22
f 15//18 21//23 19//24
f 20//25 22//26 16//21
f 23//27 21//23 15//18
f 24//28 14//19 16//21
f 25//29 27//30 21//23
f 26//31 24//28 22//26
f 21//23 27//30 29//32
f 30//33 28//34 22//26
f 27//30 33//35 31//36
f 32//37 34//38 28//34
f 25//29 35//39 33//35
f 34//38 36//40 26//31
f 35//39 37//41 39//42
f 40//43 38//44 36//40
f 33//35 39//42 41//45
f 42//46 40//43 34//38
f 39//42 45//3 43//8
f 44//10 46//6 40//43
f 37//41 47//47 45//3
f 46//6 48//5 38//44
f 47//47 37//41 51//48
f 52//49 38//44 48//5
f 37//41 35//39 53//50
f 54//51 36//40 38//44
f 35//39 25//29 55//52
f 56//53 26//31 36//40
f 25//29 23//27 57//54
f 58//55 24//28 26//31
f 13//17 59//56 57//54
f 14//19 24//28 58//55
f 11//15 63//57 59//56
f 12//16 14//19 60//58
f 1//1 65//59 63//57
f 2//4 12//16 64//60
f 47//47 49//61 65//59
f 48//5 2//4 66//62
f 61//63 65//59 49//61
f 50//64 66//62 62//65
f 63//57 65//59 61//63
f 62//65 66//62 64//60
f 61//63 59//56 63//57
f 64//60 60//58 62//65
f 61//63 57//54 59//56
f 60//58 58//55 62//65
f 61//63 55//52 57//54
f 58//55 56//53 62//65
f 61//63 53//50 55//52
f 56//53 54//51 62//65
f 61//63 51//48 53//50
f 54//51 52//49 62//65
f 61//63 49//61 51//48
f 52//49 50//64 62//65
f 89//66 174//67 176//68
f 176//68 175//69 90//70
f 87//71 172//72 174//67
f 175//69 173//73 88//74
f 170//75 172//72 87//71
f 171//76 86//77 88//74
f 168//78 170//75 85//79
f 169//80 84//81 86//77
f 166//82 168//78 83//83
f 167//84 82//85 84//81
f 92//86 146//87 164//88
f 93//89 80//90 165//91
f 92//86 94//92 148//93
f 149//94 95//95 93//89
f 96//96 150//97 148//93
f 97//98 95//95 149//94
f 96//96 98//99 152//100
f 153//101 99//102 97//98
f 98//99 100//103 154//104
f 155//105 101//106 99//102
f 100//103 102//107 156//108
f 157//109 103//110 101//106
f 104//111 158//112 156//108
f 105//113 103//110 157//109
f 104//111 106//114 160//115
f 161//116 107//117 105//113
f 106//114 108//118 162//119
f 163//120 109//121 107//117
f 108//118 67//122 68//123
f 68//123 67//122 109//121
f 110//124 128//125 160//115
f 161//116 129//126 111//127
f 179//128 158//112 160//115
f 180//129 129//126 161//116
f 126//130 156//108 158//112
f 159//131 157//109 127//132
f 124//133 154//104 156//108
f 157//109 155//105 125//134
f 122//135 152//100 154//104
f 155//105 153//101 123//136
f 120//137 150//97 152//100
f 153//101 151//138 121//139
f 118//140 148//93 150//97
f 151//138 149//94 119//141
f 116//142 146//87 148//93
f 149//94 147//143 117//144
f 114//145 164//88 146//87
f 147//143 165//91 115//146
f 181//147 177//148 164//88
f 182//149 115//146 165//91
f 110//124 162//119 68//123
f 68//123 163//120 111//127
f 68//123 178//150 183//151
f 68//123 113//152 184//153
f 177//148 181//147 183//151
f 184//153 182//149 177//148
f 137//154 176//68 174//67
f 137//154 136//155 175//69
f 135//156 174//67 172//72
f 136//155 134//157 173//73
f 131//158 133//159 172//72
f 173//73 134//157 132//160
f 187//161 185//162 168//78
f 188//163 167//84 169//80
f 170//75 168//78 185//162
f 171//76 132//160 186//164
f 144//165 190//166 189//167
f 189//167 190//166 145//168
f 185//162 187//161 189//167
f 189//167 188//163 186//164
f 130//169 131//158 185//162
f 186//164 132//160 130//169
f 193//170 191//171 144//165
f 194//172 143//173 145//168
f 195//174 193//170 142//175
f 196//176 141//177 143//173
f 139//178 197//179 195//174
f 196//176 198//180 139//178
f 138//181 71//182 197//179
f 198//180 71//182 138//181
f 190//166 144//165 191//171
f 192//183 145//168 190//166
f 70//184 191//171 206//185
f 207//186 192//183 70//184
f 199//187 200//188 197//179
f 199//187 71//182 198//180
f 200//188 202//189 195//174
f 201//190 198//180 196//176
f 195//174 202//189 204//191
f 205//192 203//193 196//176
f 204//191 206//185 191//171
f 205//192 194//172 192//183
f 199//187 204//191 202//189
f 203//193 205//192 199//187
f 208//194 206//185 204//191
f 208//194 199//187 205//192
f 140//195 164//88 177//148
f 141//177 139//178 177//148
f 142//175 211//196 164//88
f 143//173 141//177 165//91
f 142//175 144//165 213//197
f 214//198 145//168 143//173
f 144//165 187//161 166//82
f 167//84 188//163 145//168
f 81//199 209//200 213//197
f 214//198 210//201 82//85
f 209//200 215//202 211//196
f 212//203 216//204 210//201
f 164//88 211//196 215//202
f 165//91 80//90 216//204
f 131//158 130//169 72//205
f 72//205 130//169 132//160
f 131//158 222//206 220//207
f 132//160 134//157 221//208
f 133//159 220//207 218//209
f 134//157 136//155 219//210
f 135//156 218//209 217//211
f 136//155 137//154 217//211
f 217//211 218//209 229//212
f 230//213 219//210 217//211
f 220//207 227//214 229//212
f 221//208 219//210 230//213
f 222//206 225//215 227//214
f 223//216 221//208 228//217
f 222//206 72//205 224//218
f 224//218 72//205 223//216
f 231//219 229//212 225//215
f 231//219 224//218 226//220
f 225//215 229//212 227//214
f 228//217 230//213 226//220
f 181//147 234//221 232//222
f 182//149 184//153 233//223
f 183//151 232//222 254//224
f 184//153 113//152 255//225
f 110//124 112//226 254//224
f 255//225 113//152 111//127
f 181//147 114//145 252//227
f 253//228 115//146 182//149
f 116//142 250//229 252//227
f 117//144 115//146 253//228
f 118//140 248//230 250//229
f 119//141 117//144 251//231
f 120//137 246//232 248//230
f 121//139 119//141 249//233
f 122//135 244//234 246//232
f 123//136 121//139 247//235
f 122//135 124//133 242//236
f 243//237 125//134 123//136
f 124//133 126//130 240//238
f 241//239 127//132 125//134
f 179//128 236//240 240//238
f 180//129 127//132 241//239
f 128//125 238//241 236//240
f 129//126 180//129 237//242
f 110//124 256//243 238//241
f 111//127 129//126 239//244
f 238//241 256//243 258//245
f 259//246 257//247 239//244
f 238//241 276//248 278//249
f 239//244 237//242 279//250
f 240//238 236//240 278//249
f 279//250 237//242 241//239
f 242//236 240//238 274//251
f 275//252 241//239 243//237
f 242//236 272//253 270//254
f 243//237 245//255 271//256
f 246//232 244//234 270//254
f 271//256 245//255 247//235
f 246//232 268//257 266//258
f 247//235 249//233 267//259
f 250//229 248//230 266//258
f 267//259 249//233 251//231
f 252//227 250//229 264//260
f 265//261 251//231 253//228
f 252//227 262//262 280//263
f 253//228 235//264 281//265
f 254//224 260//266 258//245
f 255//225 257//247 259//246
f 232//222 282//267 260//266
f 233//223 255//225 261//268
f 234//221 280//263 282//267
f 235//264 233//223 283//269
f 108//118 284//270 73//271
f 109//121 67//122 73//271
f 106//114 286//272 284//270
f 107//117 109//121 285//273
f 106//114 104//111 288//274
f 289//275 105//113 107//117
f 104//111 102//107 290//276
f 291//277 103//110 105//113
f 102//107 100//103 292//278
f 293//279 101//106 103//110
f 98//99 294//280 292//278
f 99//102 101//106 293//279
f 98//99 96//96 296//281
f 297//282 97//98 99//102
f 94//92 298//283 296//281
f 95//95 97//98 297//282
f 92//86 300//284 298//283
f 93//89 95//95 299//285
f 308//286 309//287 328//288
f 329//289 309//287 308//286
f 307//290 308//286 338//291
f 339//292 308//286 307//290
f 306//293 307//290 336//294
f 337//295 307//290 306//293
f 91//296 306//293 340//297
f 91//296 90//70 341//298
f 89//66 340//297 334//299
f 90//70 88//74 335//300
f 87//71 334//299 330//301
f 88//74 86//77 331//302
f 85//79 330//301 332//303
f 86//77 84//81 333//304
f 336//294 338//291 332//303
f 337//295 331//302 333//304
f 330//301 334//299 340//297
f 341//298 335//300 331//302
f 326//305 332//303 338//291
f 339//292 333//304 327//306
f 83//83 332//303 326//305
f 84//81 82//85 327//306
f 209//200 342//307 344//308
f 345//309 343//310 210//201
f 81//199 326//305 342//307
f 343//310 327//306 82//85
f 79//311 215//202 344//308
f 345//309 216//204 80//90
f 79//311 346//312 300//284
f 301//313 347//314 80//90
f 77//315 324//316 352//317
f 353//318 325//319 77//315
f 304//320 352//317 350//321
f 351//322 353//318 304//320
f 350//321 348//323 305//324
f 351//322 78//325 305//324
f 348//323 328//288 309//287
f 349//326 305//324 309//287
f 326//305 328//288 348//323
f 349//326 329//289 327//306
f 298//283 318//327 310//328
f 299//285 297//282 311//329
f 76//330 316//331 324//316
f 325//319 317//332 76//330
f 302//333 358//334 356//335
f 357//336 359//337 302//333
f 356//335 354//338 75//339
f 357//336 303//340 75//339
f 354//338 316//331 76//330
f 355//341 75//339 76//330
f 294//280 362//342 364//343
f 295//344 293//279 365//345
f 362//342 368//346 366//347
f 363//348 365//345 367//349
f 368//346 370//350 372//351
f 369//352 367//349 373//353
f 370//350 376//354 374//355
f 371//356 373//353 375//357
f 314//358 378//359 374//355
f 375//357 379//360 315//361
f 354//338 374//355 378//359
f 355//341 317//332 379//360
f 356//335 372//351 374//355
f 357//336 355//341 375//357
f 358//334 366//347 372//351
f 359//337 357//336 373//353
f 360//362 364//343 366//347
f 361//363 359//337 367//349
f 290//276 292//278 364//343
f 365//345 293//279 291//277
f 74//364 360//362 358//334
f 359//337 361//363 74//364
f 286//272 288//274 290//276
f 287//365 285//273 291//277
f 290//276 360//362 74//364
f 291//277 285//273 74//364
f 73//271 284//270 74//364
f 74//364 285//273 73//271
f 294//280 296//281 310//328
f 311//329 297//282 295//344
f 312//366 368//346 362//342
f 313//367 311//329 363//348
f 382//368 370//350 368//346
f 383//369 313//367 369//352
f 314//358 376//354 370//350
f 371//356 377//370 315//361
f 348//323 350//321 386//371
f 387//372 351//322 349//326
f 318//327 384//373 386//371
f 387//372 385//374 319//375
f 300//284 384//373 318//327
f 301//313 299//285 319//375
f 344//308 342//307 384//373
f 345//309 301//313 385//374
f 342//307 348//323 384//373
f 385//374 349//326 343//310
f 300//284 346//312 344//308
f 345//309 347//314 301//313
f 314//358 322//376 380//377
f 381//378 323//379 315//361
f 316//331 378//359 380//377
f 381//378 379//360 317//332
f 320//380 386//371 380//377
f 381//378 387//372 321//381
f 350//321 352//317 380//377
f 381//378 353//318 351//322
f 324//316 380//377 352//317
f 353//318 381//378 325//319
f 400//382 388//383 414//384
f 415//385 389//386 401//387
f 402//388 404//389 398//390
f 403//391 401//387 399//392
f 398//390 404//389 406//393
f 407//394 405//395 399//392
f 396//396 406//393 408//397
f 409//398 407//394 397//399
f 394//400 408//397 410//401
f 411//402 409//398 395//403
f 410//401 412//404 390//405
f 411//402 393//406 391//407
f 420//408 418//409 412//404
f 421//410 411//402 413//411
f 422//412 420//408 410//401
f 423//413 409//398 411//402
f 406//393 424//414 422//412
f 423//413 425//415 407//394
f 404//389 426//416 424//414
f 425//415 427//417 405//395
f 402//388 428//418 426//416
f 427//417 429//419 403//391
f 414//384 416//420 428//418
f 415//385 403//391 429//419
f 318//327 320//380 444//421
f 445//422 321//381 319//375
f 320//380 390//405 412//404
f 413//411 391//407 321//381
f 318//327 442//423 312//366
f 319//375 311//329 313//367
f 430//424 414//384 388//383
f 431//425 383//369 389//386
f 418//409 440//426 444//421
f 419//427 413//411 445//422
f 438//428 446//429 444//421
f 445//422 447//430 439//431
f 446//429 438//428 436//432
f 447//430 435//433 437//434
f 432//435 448//436 446//429
f 447//430 449//437 433//438
f 430//424 448//436 432//435
f 433//438 449//437 431//425
f 414//384 430//424 450//439
f 451//440 431//425 415//385
f 448//436 430//424 382//368
f 449//437 313//367 383//369
f 312//366 442//423 446//429
f 447//430 443//441 313//367
f 442//423 444//421 446//429
f 447//430 445//422 443//441
f 450//439 452//442 476//443
f 451//440 417//444 477//445
f 450//439 432//435 462//446
f 463//447 433//438 451//440
f 434//448 460//449 462//446
f 435//433 433//438 463//447
f 434//448 436//432 458//450
f 459//451 437//434 435//433
f 436//432 438//428 456//452
f 457//453 439//431 437//434
f 440//426 454//454 456//452
f 441//455 439//431 457//453
f 418//409 474//456 454//454
f 419//427 441//455 455//457
f 416//420 476//443 464//458
f 417//444 429//419 465//459
f 428//418 464//458 466//460
f 429//419 427//417 467//461
f 426//416 466//460 468//462
f 427//417 425//415 469//463
f 422//412 424//414 468//462
f 469//463 425//415 423//413
f 420//408 422//412 470//464
f 471//465 423//413 421//410
f 418//409 420//408 472//466
f 473//467 421//410 419//427
f 458//450 456//452 480//468
f 481//469 457//453 459//451
f 478//470 480//468 482//471
f 483//472 481//469 479//473
f 482//471 488//474 486//475
f 483//472 485//476 487//477
f 486//475 488//474 490//478
f 491//479 489//480 487//477
f 476//443 486//475 492//481
f 477//445 465//459 493//482
f 452//442 484//483 486//475
f 487//477 485//476 453//484
f 452//442 462//446 478//470
f 479//473 463//447 453//484
f 478//470 462//446 460//449
f 479//473 459//451 461//485
f 454//454 474//456 480//468
f 481//469 475//486 455//457
f 482//471 480//468 474//456
f 483//472 473//467 475//486
f 470//464 488//474 482//471
f 483//472 489//480 471//465
f 468//462 490//478 488//474
f 489//480 491//479 469//463
f 492//481 490//478 468//462
f 493//482 467//461 469//463
f 464//458 492//481 466//460
f 467//461 493//482 465//459
f 390//405 504//487 502//488
f 391//407 393//406 503//489
f 392//490 502//488 500//491
f 393//406 395//403 501//492
f 396//396 394//400 500//491
f 501//492 395//403 397//399
f 398//390 396//396 498//493
f 499//494 397//399 399//392
f 400//382 398//390 496//495
f 497//496 399//392 401//387
f 388//383 400//382 494//497
f 495//498 401//387 389//386
f 494//497 502//488 504//487
f 505//499 503//489 495//498
f 496//495 500//491 502//488
f 497//496 495//498 503//489
f 496//495 498//493 500//491
f 501//492 499//494 497//496
f 314//358 382//368 388//383
f 389//386 383//369 315//361
f 506//500 504//487 322//376
f 507//501 315//361 323//379
f 322//376 504//487 390//405
f 323//379 321//381 391//407
f 47//47 1//1 45//3
f 4//9 2//4 46//6
f 45//3 3//2 43//8
f 6//14 4//9 44//10
f 3//2 9//11 5//7
f 8//22 10//13 6//14
f 1//1 11//15 3//2
f 10//13 12//16 4//9
f 11//15 13//17 9//11
f 16//21 14//19 10//13
f 9//11 15//18 7//12
f 18//502 16//21 8//22
f 17//20 15//18 19//24
f 18//502 20//25 16//21
f 13//17 23//27 15//18
f 22//26 24//28 16//21
f 23//27 25//29 21//23
f 28//34 26//31 22//26
f 19//24 21//23 29//32
f 20//25 30//33 22//26
f 29//32 27//30 31//36
f 30//33 32//37 28//34
f 27//30 25//29 33//35
f 28//34 34//38 26//31
f 33//35 35//39 39//42
f 34//38 40//43 36//40
f 31//36 33//35 41//45
f 32//37 42//46 34//38
f 41//45 39//42 43//8
f 42//46 44//10 40//43
f 39//42 37//41 45//3
f 40//43 46//6 38//44
f 49//61 47//47 51//48
f 50//64 52//49 48//5
f 51//48 37//41 53//50
f 52//49 54//51 38//44
f 53//50 35//39 55//52
f 54//51 56//53 36//40
f 55//52 25//29 57//54
f 56//53 58//55 26//31
f 23//27 13//17 57//54
f 60//58 14//19 58//55
f 13//17 11//15 59//56
f 64//60 12//16 60//58
f 11//15 1//1 63//57
f 66//62 2//4 64//60
f 1//1 47//47 65//59
f 50//64 48//5 66//62
f 91//296 89//66 176//68
f 91//296 176//68 90//70
f 89//66 87//71 174//67
f 90//70 175//69 88//74
f 85//79 170//75 87//71
f 173//73 171//76 88//74
f 83//83 168//78 85//79
f 171//76 169//80 86//77
f 81//199 166//82 83//83
f 169//80 167//84 84//81
f 79//311 92//86 164//88
f 147//143 93//89 165//91
f 146//87 92//86 148//93
f 147//143 149//94 93//89
f 94//92 96//96 148//93
f 151//138 97//98 149//94
f 150//97 96//96 152//100
f 151//138 153//101 97//98
f 152//100 98//99 154//104
f 153//101 155//105 99//102
f 154//104 100//103 156//108
f 155//105 157//109 101//106
f 102//107 104//111 156//108
f 159//131 105//113 157//109
f 158//112 104//111 160//115
f 159//131 161//116 105//113
f 160//115 106//114 162//119
f 161//116 163//120 107//117
f 162//119 108//118 68//123
f 163//120 68//123 109//121
f 162//119 110//124 160//115
f 163//120 161//116 111//127
f 128//125 179//128 160//115
f 159//131 180//129 161//116
f 179//128 126//130 158//112
f 180//129 159//131 127//132
f 126//130 124//133 156//108
f 127//132 157//109 125//134
f 124//133 122//135 154//104
f 125//134 155//105 123//136
f 122//135 120//137 152//100
f 123//136 153//101 121//139
f 120//137 118//140 150//97
f 121//139 151//138 119//141
f 118//140 116//142 148//93
f 119//141 149//94 117//144
f 116//142 114//145 146//87
f 117//144 147//143 115//146
f 114//145 181//147 164//88
f 177//148 182//149 165//91
f 112//226 110//124 68//123
f 113//152 68//123 111//127
f 112//226 68//123 183//151
f 178//150 68//123 184//153
f 178//150 177//148 183//151
f 178//150 184//153 177//148
f 135//156 137//154 174//67
f 176//68 137//154 175//69
f 133//159 135//156 172//72
f 175//69 136//155 173//73
f 170//75 131//158 172//72
f 171//76 173//73 132//160
f 166//82 187//161 168//78
f 186//164 188//163 169//80
f 131//158 170//75 185//162
f 169//80 171//76 186//164
f 187//161 144//165 189//167
f 188//163 189//167 145//168
f 69//503 185//162 189//167
f 69//503 189//167 186//164
f 69//503 130//169 185//162
f 69//503 186//164 130//169
f 142//175 193//170 144//165
f 192//183 194//172 145//168
f 140//195 195//174 142//175
f 194//172 196//176 143//173
f 140//195 139//178 195//174
f 141//177 196//176 139//178
f 139//178 138//181 197//179
f 139//178 198//180 138//181
f 70//184 190//166 191//171
f 70//184 192//183 190//166
f 208//194 70//184 206//185
f 208//194 207//186 70//184
f 71//182 199//187 197//179
f 201//190 199//187 198//180
f 197//179 200//188 195//174
f 203//193 201//190 196//176
f 193//170 195//174 204//191
f 194//172 205//192 196//176
f 193//170 204//191 191//171
f 207//186 205//192 192//183
f 200//188 199//187 202//189
f 201//190 203//193 199//187
f 199//187 208//194 204//191
f 207//186 208//194 205//192
f 139//178 140//195 177//148
f 165//91 141//177 177//148
f 140//195 142//175 164//88
f 212//203 143//173 165//91
f 211//196 142//175 213//197
f 212//203 214//198 143//173
f 213//197 144//165 166//82
f 214//198 167//84 145//168
f 166//82 81//199 213//197
f 167//84 214//198 82//85
f 213//197 209//200 211//196
f 214//198 212//203 210//201
f 79//311 164//88 215//202
f 212//203 165//91 216//204
f 222//206 131//158 72//205
f 223//216 72//205 132//160
f 133//159 131//158 220//207
f 223//216 132//160 221//208
f 135//156 133//159 218//209
f 221//208 134//157 219//210
f 137//154 135//156 217//211
f 219//210 136//155 217//211
f 231//219 217//211 229//212
f 231//219 230//213 217//211
f 218//209 220//207 229//212
f 228//217 221//208 230//213
f 220//207 222//206 227//214
f 226//220 223//216 228//217
f 225//215 222//206 224//218
f 226//220 224//218 223//216
f 224//218 231//219 225//215
f 230//213 231//219 226//220
f 183//151 181//147 232//222
f 235//264 182//149 233//223
f 112//226 183//151 254//224
f 233//223 184//153 255//225
f 256//243 110//124 254//224
f 257//247 255//225 111//127
f 234//221 181//147 252//227
f 235//264 253//228 182//149
f 114//145 116//142 252//227
f 251//231 117//144 253//228
f 116//142 118//140 250//229
f 249//233 119//141 251//231
f 118//140 120//137 248//230
f 247//235 121//139 249//233
f 120//137 122//135 246//232
f 245//255 123//136 247//235
f 244//234 122//135 242//236
f 245//255 243//237 123//136
f 242//236 124//133 240//238
f 243//237 241//239 125//134
f 126//130 179//128 240//238
f 237//242 180//129 241//239
f 179//128 128//125 236//240
f 239//244 129//126 237//242
f 128//125 110//124 238//241
f 257//247 111//127 239//244
f 276//248 238//241 258//245
f 277//504 259//246 239//244
f 236//240 238//241 278//249
f 277//504 239//244 279//250
f 274//251 240//238 278//249
f 275//252 279//250 241//239
f 272//253 242//236 274//251
f 273//505 275//252 243//237
f 244//234 242//236 270//254
f 273//505 243//237 271//256
f 268//257 246//232 270//254
f 269//506 271//256 247//235
f 248//230 246//232 266//258
f 269//506 247//235 267//259
f 264//260 250//229 266//258
f 265//261 267//259 251//231
f 262//262 252//227 264//260
f 263//507 265//261 253//228
f 234//221 252//227 280//263
f 263//507 253//228 281//265
f 256//243 254//224 258//245
f 261//268 255//225 259//246
f 254//224 232//222 260//266
f 283//269 233//223 261//268
f 232//222 234//221 282//267
f 281//265 235//264 283//269
f 67//122 108//118 73//271
f 285//273 109//121 73//271
f 108//118 106//114 284//270
f 287//365 107//117 285//273
f 286//272 106//114 288//274
f 287//365 289//275 107//117
f 288//274 104//111 290//276
f 289//275 291//277 105//113
f 290//276 102//107 292//278
f 291//277 293//279 103//110
f 100//103 98//99 292//278
f 295//344 99//102 293//279
f 294//280 98//99 296//281
f 295//344 297//282 99//102
f 96//96 94//92 296//281
f 299//285 95//95 297//282
f 94//92 92//86 298//283
f 301//313 93//89 299//285
f 338//291 308//286 328//288
f 339//292 329//289 308//286
f 336//294 307//290 338//291
f 337//295 339//292 307//290
f 340//297 306//293 336//294
f 341//298 337//295 306//293
f 89//66 91//296 340//297
f 306//293 91//296 341//298
f 87//71 89//66 334//299
f 341//298 90//70 335//300
f 85//79 87//71 330//301
f 335//300 88//74 331//302
f 83//83 85//79 332//303
f 331//302 86//77 333//304
f 330//301 336//294 332//303
f 339//292 337//295 333//304
f 336//294 330//301 340//297
f 337//295 341//298 331//302
f 328//288 326//305 338//291
f 329//289 339//292 327//306
f 81//199 83//83 326//305
f 333//304 84//81 327//306
f 215//202 209//200 344//308
f 216//204 345//309 210//201
f 209//200 81//199 342//307
f 210//201 343//310 82//85
f 346//312 79//311 344//308
f 347//314 345//309 80//90
f 92//86 79//311 300//284
f 93//89 301//313 80//90
f 304//320 77//315 352//317
f 304//320 353//318 77//315
f 78//325 304//320 350//321
f 78//325 351//322 304//320
f 78//325 350//321 305//324
f 349//326 351//322 305//324
f 305//324 348//323 309//287
f 329//289 349//326 309//287
f 342//307 326//305 348//323
f 343//310 349//326 327//306
f 296//281 298//283 310//328
f 319//375 299//285 311//329
f 77//315 76//330 324//316
f 77//315 325//319 76//330
f 303//340 302//333 356//335
f 303//340 357//336 302//333
f 303//340 356//335 75//339
f 355//341 357//336 75//339
f 75//339 354//338 76//330
f 317//332 355//341 76//330
f 292//278 294//280 364//343
f 363//348 295//344 365//345
f 364//343 362//342 366//347
f 369//352 363//348 367//349
f 366//347 368//346 372//351
f 371//356 369//352 373//353
f 372//351 370//350 374//355
f 377//370 371//356 375//357
f 376//354 314//358 374//355
f 377//370 375//357 315//361
f 316//331 354//338 378//359
f 375//357 355//341 379//360
f 354//338 356//335 374//355
f 373//353 357//336 375//357
f 356//335 358//334 372//351
f 367//349 359//337 373//353
f 358//334 360//362 366//347
f 365//345 361//363 367//349
f 360//362 290//276 364//343
f 361//363 365//345 291//277
f 302//333 74//364 358//334
f 302//333 359//337 74//364
f 284//270 286//272 290//276
f 289//275 287//365 291//277
f 284//270 290//276 74//364
f 361//363 291//277 74//364
f 362//342 294//280 310//328
f 363//348 311//329 295//344
f 310//328 312//366 362//342
f 369//352 313//367 363//348
f 312//366 382//368 368//346
f 371//356 383//369 369//352
f 382//368 314//358 370//350
f 383//369 371//356 315//361
f 384//373 348//323 386//371
f 385//374 387//372 349//326
f 320//380 318//327 386//371
f 321//381 387//372 319//375
f 298//283 300//284 318//327
f 385//374 301//313 319//375
f 300//284 344//308 384//373
f 343//310 345//309 385//374
f 378//359 314//358 380//377
f 379//360 381//378 315//361
f 324//316 316//331 380//377
f 325//319 381//378 317//332
f 322//376 320//380 380//377
f 323//379 381//378 321//381
f 386//371 350//321 380//377
f 387//372 381//378 351//322
f 402//388 400//382 414//384
f 403//391 415//385 401//387
f 400//382 402//388 398//390
f 405//395 403//391 399//392
f 396//396 398//390 406//393
f 397//399 407//394 399//392
f 394//400 396//396 408//397
f 395//403 409//398 397//399
f 392//490 394//400 410//401
f 393//406 411//402 395//403
f 392//490 410//401 390//405
f 413//411 411//402 391//407
f 410//401 420//408 412//404
f 419//427 421//410 413//411
f 408//397 422//412 410//401
f 421//410 423//413 411//402
f 408//397 406//393 422//412
f 409//398 423//413 407//394
f 406//393 404//389 424//414
f 407//394 425//415 405//395
f 404//389 402//388 426//416
f 405//395 427//417 403//391
f 402//388 414//384 428//418
f 417//444 415//385 429//419
f 442//423 318//327 444//421
f 443//441 445//422 319//375
f 444//421 320//380 412//404
f 445//422 413//411 321//381
f 310//328 318//327 312//366
f 443//441 319//375 313//367
f 382//368 430//424 388//383
f 415//385 431//425 389//386
f 412//404 418//409 444//421
f 441//455 419//427 445//422
f 440//426 438//428 444//421
f 441//455 445//422 439//431
f 434//448 446//429 436//432
f 439//431 447//430 437//434
f 434//448 432//435 446//429
f 435//433 447//430 433//438
f 450//439 430//424 432//435
f 451//440 433//438 431//425
f 416//420 414//384 450//439
f 417//444 451//440 415//385
f 312//366 448//436 382//368
f 431//425 449//437 383//369
f 448//436 312//366 446//429
f 449//437 447//430 313//367
f 416//420 450//439 476//443
f 453//484 451//440 477//445
f 452//442 450//439 462//446
f 453//484 463//447 451//440
f 432//435 434//448 462//446
f 461//485 435//433 463//447
f 460//449 434//448 458//450
f 461//485 459//451 435//433
f 458//450 436//432 456//452
f 459//451 457//453 437//434
f 438//428 440//426 456//452
f 455//457 441//455 457//453
f 440//426 418//409 454//454
f 475//486 419//427 455//457
f 428//418 416//420 464//458
f 477//445 417//444 465//459
f 426//416 428//418 466//460
f 465//459 429//419 467//461
f 424//414 426//416 468//462
f 467//461 427//417 469//463
f 470//464 422//412 468//462
f 471//465 469//463 423//413
f 472//466 420//408 470//464
f 473//467 471//465 421//410
f 474//456 418//409 472//466
f 475//486 473//467 419//427
f 478//470 458//450 480//468
f 479//473 481//469 459//451
f 484//483 478//470 482//471
f 485//476 483//472 479//473
f 484//483 482//471 486//475
f 489//480 483//472 487//477
f 492//481 486//475 490//478
f 493//482 491//479 487//477
f 464//458 476//443 492//481
f 487//477 477//445 493//482
f 476//443 452//442 486//475
f 477//445 487//477 453//484
f 484//483 452//442 478//470
f 485//476 479//473 453//484
f 458//450 478//470 460//449
f 463//447 479//473 461//485
f 456//452 454//454 480//468
f 457//453 481//469 455//457
f 472//466 482//471 474//456
f 481//469 483//472 475//486
f 472//466 470//464 482//471
f 473//467 483//472 471//465
f 470//464 468//462 488//474
f 471//465 489//480 469//463
f 466//460 492//481 468//462
f 491//479 493//482 469//463
f 392//490 390//405 502//488
f 505//499 391//407 503//489
f 394//400 392//490 500//491
f 503//489 393//406 501//492
f 498//493 396//396 500//491
f 499//494 501//492 397//399
f 496//495 398//390 498//493
f 497//496 499//494 399//392
f 494//497 400//382 496//495
f 495//498 497//496 401//387
f 506//500 388//383 494//497
f 507//501 495//498 389//386
f 506//500 494//497 504//487
f 507//501 505//499 495//498
f 494//497 496//495 502//488
f 501//492 497//496 503//489
f 506//500 314//358 388//383
f 507//501 389//386 315//361
f 314//358 506//500 322//376
f 505//499 507//501 323//379
f 320//380 322//376 390//405
f 505//499 323//379 391//407
